{
    "swagger": "2.0",
    "info": {
        "version": "0.2.0",
        "title": "OptimiCDN API"
    },
    "host": "127.0.0.1:8080",
    "schemes": [
        "http"
    ],
    "consumes": [
        "application/json"
    ],
    "paths": {
        "/api/v1/accounts/{account_hash}": {
            "get": {
                "description": "GET verb implementation for a single `Account`. The account fetched is the one set in the Account Context.\n",
                "summary": "Display an account.",
                "produces": [
                    "application/json"
                ],
                "tags": [
                    "Accounts"
                ],
                "parameters": [
                    {
                        "name": "account_hash",
                        "in": "path",
                        "required": true,
                        "type": "string",
                        "description": "The account hash of the account you are querying."
                    },
                    {
                        "name": "display_subaccounts",
                        "in": "query",
                        "type": "boolean",
                        "description": "If true, subaccounts are displayed. Only the first level of subaccount will be displayed."
                    }
                ],
                "responses": {
                    "200": {
                        "description": "Successful response.",
                        "schema": {
                            "$ref": "#/definitions/Account"
                        }
                    },
                    "401": {
                        "description": "Authorization failed.",
                        "schema": {
                            "$ref": "#/definitions/ErrorMessage"
                        }
                    },
                    "403": {
                        "description": "Access denied.",
                        "schema": {
                            "$ref": "#/definitions/ErrorMessage"
                        }
                    }
                }
            },
            "delete": {
                "description": "Delete the specified account.",
                "summary": "Delete an account.",
                "tags": [
                    "Accounts"
                ],
                "parameters": [
                    {
                        "name": "account_hash",
                        "in": "path",
                        "required": true,
                        "type": "string",
                        "description": "The account hash of the account to delete."
                    }
                ],
                "responses": {
                    "200": {
                        "description": "Successful response.",
                        "schema": {
                            "type": "string"
                        }
                    },
                    "401": {
                        "description": "Authorization failed.",
                        "schema": {
                            "type": "string"
                        }
                    }
                }
            },
            "put": {
                "description": "Handles PUT for accounts, updating an existing account. id and hashCode, parentId and subAccounts can't be changed. primaryContact, billingContact, technicalContact, or services list are optional. If they are not present, they are not modified.\n",
                "summary": "Update an account",
                "tags": [
                    "Accounts"
                ],
                "parameters": [
                    {
                        "name": "account_hash",
                        "in": "path",
                        "required": true,
                        "type": "string",
                        "description": "The account hash of the account to update."
                    },
                    {
                        "name": "account",
                        "in": "body",
                        "required": true,
                        "schema": {
                            "$ref": "#/definitions/Account"
                        },
                        "description": "Json representation of the account to update."
                    }
                ],
                "responses": {
                    "200": {
                        "description": "Successful response.",
                        "schema": {
                            "type": "string"
                        }
                    },
                    "401": {
                        "description": "Authorization failed.",
                        "schema": {
                            "type": "string"
                        }
                    }
                }
            },
            "post": {
                "description": "Handles POST for accounts, creating a new account. id, hashCode, parentId and subAccounts can't be set and are ignored. primaryContact, billingContact, technicalContact, or services list are optional. If they are not present, the parent contacts and services are used.\n",
                "summary": "Creates a new subaccount under an account.",
                "tags": [
                    "Accounts"
                ],
                "parameters": [
                    {
                        "name": "account_hash",
                        "in": "path",
                        "required": true,
                        "type": "string",
                        "description": "The parent account hash of the parent account."
                    },
                    {
                        "name": "account",
                        "in": "body",
                        "required": true,
                        "schema": {
                            "$ref": "#/definitions/Account"
                        },
                        "description": "Json representation of the account to update."
                    }
                ],
                "responses": {
                    "200": {
                        "description": "Successful response.",
                        "schema": {
                            "type": "string"
                        }
                    },
                    "401": {
                        "description": "Authorization failed.",
                        "schema": {
                            "type": "string"
                        }
                    }
                }
            }
        },
        "/auth/token": {
            "post": {
                "description": "Used to authenticate a user and obtain or refresh an access token for use with the api.\n",
                "summary": "Authenticate user or refresh an access token.",
                "tags": [
                    "Authentication"
                ],
                "parameters": [
                    {
                        "name": "request",
                        "in": "body",
                        "required": true,
                        "schema": {
                            "$ref": "#/definitions/RequestToken"
                        }
                    }
                ],
                "responses": {
                    "200": {
                        "description": "Successful response.",
                        "schema": {
                            "$ref": "#/definitions/AccessToken"
                        }
                    },
                    "401": {
                        "description": "Authorization failed.",
                        "schema": {
                            "type": "string"
                        }
                    }
                }
            }
        },
        "/api/v1/accounts/{account_hash}/services": {
            "get": {
                "description": "Return the list of services enabled for a given account.",
                "summary": "Return the list of services enabled for a given account.",
                "tags": [
                    "Services"
                ],
                "parameters": [
                    {
                        "name": "account_hash",
                        "in": "path",
                        "required": true,
                        "type": "string",
                        "description": "The account hash of the account you are querying."
                    }
                ],
                "responses": {
                    "200": {
                        "description": "Successful response.",
                        "schema": {
                            "type": "array",
                            "items": {
                                "$ref": "#/definitions/Service"
                            }
                        }
                    },
                    "401": {
                        "description": "Authorization failed.",
                        "schema": {
                            "type": "string"
                        }
                    }
                }
            }
        },
        "/api/v1/accounts/{account_hash}/users": {
            "post": {
                "description": "Creates a new user.",
                "summary": "Creates a new user.",
                "tags": [
                    "Users"
                ],
                "parameters": [
                    {
                        "name": "account_hash",
                        "in": "path",
                        "required": true,
                        "type": "string",
                        "description": "The account hash of the user."
                    },
                    {
                        "name": "user",
                        "in": "body",
                        "required": true,
                        "schema": {
                            "$ref": "#/definitions/User"
                        },
                        "description": "Json representation of the user to create. The structure should match the response class model. The id should be 0.  All other properties are optional and will revert to their default if ommitted.\n"
                    }
                ],
                "responses": {
                    "200": {
                        "description": "the User created including the user id.",
                        "schema": {
                            "$ref": "#/definitions/User"
                        }
                    },
                    "401": {
                        "description": "Authorization failed.",
                        "schema": {
                            "type": "string"
                        }
                    }
                }
            },
            "get": {
                "description": "Get an account's users.",
                "summary": "Returns the list of users for a given account.",
                "tags": [
                    "Users"
                ],
                "parameters": [
                    {
                        "name": "account_hash",
                        "in": "path",
                        "required": true,
                        "type": "string",
                        "description": "The account hash of the user."
                    }
                ],
                "responses": {
                    "200": {
                        "description": "Successful response.",
                        "schema": {
                            "type": "array",
                            "items": {
                                "$ref": "#/definitions/User"
                            }
                        }
                    },
                    "401": {
                        "description": "Authorization failed.",
                        "schema": {
                            "type": "string"
                        }
                    }
                }
            }
        },
        "/api/v1/accounts/{account_hash}/users/{user_id}": {
            "delete": {
                "description": "Deletes a user\n",
                "summary": "Deletes a user",
                "tags": [
                    "Users"
                ],
                "parameters": [
                    {
                        "name": "account_hash",
                        "in": "path",
                        "required": true,
                        "type": "string",
                        "description": "The account hash of the user."
                    },
                    {
                        "name": "user_id",
                        "in": "path",
                        "required": true,
                        "type": "integer",
                        "description": "The id of the user."
                    }
                ],
                "responses": {
                    "200": {
                        "description": "Successful response.",
                        "schema": {
                            "type": "string"
                        }
                    },
                    "401": {
                        "description": "Authorization failed.",
                        "schema": {
                            "type": "string"
                        }
                    }
                }
            },
            "get": {
                "description": "Returns details on the specified user.",
                "summary": "Get the user details for the specified user.",
                "tags": [
                    "Users"
                ],
                "parameters": [
                    {
                        "name": "account_hash",
                        "in": "path",
                        "required": true,
                        "type": "string",
                        "description": "The account hash of the user."
                    },
                    {
                        "name": "user_id",
                        "in": "path",
                        "required": true,
                        "type": "integer",
                        "description": "The id of the user."
                    }
                ],
                "responses": {
                    "200": {
                        "description": "Successful response.",
                        "schema": {
                            "$ref": "#/definitions/User"
                        }
                    },
                    "401": {
                        "description": "Authorization failed.",
                        "schema": {
                            "type": "string"
                        }
                    }
                }
            },
            "put": {
                "description": "Updates a user.",
                "summary": "Updates a user.",
                "tags": [
                    "Users"
                ],
                "parameters": [
                    {
                        "name": "account_hash",
                        "in": "path",
                        "required": true,
                        "type": "string",
                        "description": "The account hash of the user."
                    },
                    {
                        "name": "user_id",
                        "in": "path",
                        "required": true,
                        "type": "integer",
                        "description": "The id of the user."
                    },
                    {
                        "name": "user",
                        "in": "body",
                        "required": true,
                        "schema": {
                            "$ref": "#/definitions/User"
                        }
                    }
                ],
                "responses": {
                    "200": {
                        "description": "Successful response.",
                        "schema": {
                            "type": "array",
                            "items": {
                                "$ref": "#/definitions/User"
                            }
                        }
                    },
                    "401": {
                        "description": "Authorization failed.",
                        "schema": {
                            "type": "string"
                        }
                    }
                }
            }
        },
        "/api/v1/users/me": {
            "get": {
                "description": "Returns details on the currently authenticated user.",
                "summary": "Get the user details for the authenticated user.",
                "tags": [
                    "Users"
                ],
                "responses": {
                    "200": {
                        "description": "Successful response.",
                        "schema": {
                            "$ref": "#/definitions/User"
                        }
                    },
                    "401": {
                        "description": "Authorization failed.",
                        "schema": {
                            "type": "string"
                        }
                    }
                }
            },
            "put": {
                "description": "Update user details for the authenticated user.",
                "summary": "Update user details for the authenticated user.",
                "tags": [
                    "Users"
                ],
                "parameters": [
                    {
                        "name": "user",
                        "in": "body",
                        "required": true,
                        "schema": {
                            "$ref": "#/definitions/User"
                        }
                    }
                ],
                "responses": {
                    "200": {
                        "description": "Successful response.",
                        "schema": {
                            "$ref": "#/definitions/User"
                        }
                    },
                    "401": {
                        "description": "Authorization failed.",
                        "schema": {
                            "type": "string"
                        }
                    }
                }
            }
        },
        "/api/v1/accounts/{account_hash}/purge": {
            "post": {
                "description": "Purges content from the CDN.",
                "summary": "Purges content from the CDN.",
                "tags": [
                    "Purge"
                ],
                "parameters": [
                    {
                        "name": "account_hash",
                        "in": "path",
                        "required": true,
                        "type": "string",
                        "description": "The account hash of the account."
                    },
                    {
                        "name": "purge_type",
                        "in": "formData",
                        "required": true,
                        "type": "string",
                        "enum": [
                            "DOMAIN",
                            "URLS"
                        ],
                        "description": "if DOMAIN, all assets in this domain will be purged."
                    },
                    {
                        "name": "purge_domain",
                        "in": "formData",
                        "type": "string",
                        "description": "The domain to purge. Ignored if purge_type=URLS."
                    },
                    {
                        "name": "purge_urls",
                        "in": "formData",
                        "type": "array",
                        "items": {
                            "type": "string"
                        },
                        "description": "The list of URLS to purge. ex: http://www.mydomain.tld/myasset.extension.\n"
                    }
                ],
                "responses": {
                    "200": {
                        "description": "Successful response with the a purge_id.",
                        "schema": {
                            "type": "string"
                        }
                    },
                    "401": {
                        "description": "Authorization failed.",
                        "schema": {
                            "type": "string"
                        }
                    }
                }
            }
        },
        "/api/v1/accounts/{account_hash}/purge/{purge_id}": {
            "get": {
                "summary": "Check a purge status.",
                "description": "Check a purge status. Can be SUCCESS, PENDING, ERROR\n",
                "tags": [
                    "Purge"
                ],
                "parameters": [
                    {
                        "name": "account_hash",
                        "in": "path",
                        "required": true,
                        "type": "string",
                        "description": "The account hash of the account."
                    },
                    {
                        "name": "purge_id",
                        "in": "path",
                        "required": true,
                        "type": "string",
                        "description": "The purge id to check."
                    }
                ],
                "responses": {
                    "200": {
                        "description": "The status of the purge_id : SUCCESS, PENDING, ERROR\n",
                        "schema": {
                            "type": "string"
                        }
                    },
                    "401": {
                        "description": "Authorization failed.",
                        "schema": {
                            "type": "string"
                        }
                    }
                }
            }
        },
        "/api/v1/accounts/{account_hash}/analytics/transfer": {
            "get": {
                "summary": "Provide hits and data transfered.",
                "produces": [
                    "application/json"
                ],
                "description": "Provide hits and data transfered per hour. \n",
                "tags": [
                    "Analytics"
                ],
                "parameters": [
                    {
                        "name": "account_hash",
                        "in": "path",
                        "required": true,
                        "type": "string",
                        "description": "The account hash of the account."
                    },
                    {
                        "name": "startDate",
                        "in": "query",
                        "required": true,
                        "type": "string",
                        "description": "The start date of the query range in ISO8601 format (2015-11-01T00:00:00Z).\n"
                    },
                    {
                        "name": "endDate",
                        "in": "query",
                        "required": true,
                        "type": "string",
                        "description": "The end date of the query range in ISO8601 format (2015-12-01T00:00:00Z).\n"
                    },
                    {
                        "name": "host",
                        "in": "query",
                        "required": false,
                        "type": "string",
                        "description": "Optional. If present the metrics for this host only will be provided."
                    },
                    {
                        "name": "groupBy",
                        "in": "query",
                        "required": false,
                        "type": "string",
                        "enum": [
                            "host",
                            "account"
                        ],
                        "description": "Metrics can be aggregated per accounts or per host. If the optional parameter host is provided, only the metric for this hots will be provided."
                    }
                ],
                "responses": {
                    "200": {
                        "description": "Return the metrics in json.",
                        "schema": {
                            "$ref": "#/definitions/SeriesCollection"
                        }
                    },
                    "401": {
                        "description": "Authorization failed.",
                        "schema": {
                            "type": "string"
                        }
                    }
                }
            }
        },
        "/api/v1/accounts/{account_hash}/hosts": {
            "get": {
                "summary": "List the hosts for the specified account.",
                "produces": [
                    "application/json"
                ],
                "description": "List the hosts for the specified account.",
                "tags": [
                    "Hosts"
                ],
                "parameters": [
                    {
                        "name": "account_hash",
                        "in": "path",
                        "required": true,
                        "type": "string",
                        "description": "The account hash of the account."
                    }
                ],
                "responses": {
                    "200": {
                        "description": "Return the host list in json.",
                        "schema": {
                            "type": "array",
                            "items": {
                                "$ref": "#/definitions/Host"
                            }
                        }
                    },
                    "401": {
                        "description": "Authorization failed.",
                        "schema": {
                            "type": "string"
                        }
                    }
                }
            },
            "post": {
                "summary": "Create a new host.",
                "produces": [
                    "application/json"
                ],
                "description": "Create a new host.",
                "tags": [
                    "Hosts"
                ],
                "parameters": [
                    {
                        "name": "account_hash",
                        "in": "path",
                        "required": true,
                        "type": "string",
                        "description": "The account hash of the account."
                    },
                    {
                        "name": "host",
                        "in": "body",
                        "required": true,
                        "schema": {
                            "$ref": "#/definitions/Host"
                        }
                    }
                ],
                "responses": {
                    "201": {
                        "description": "Return the created host.",
                        "schema": {
                            "$ref": "#/definitions/Host"
                        }
                    },
                    "401": {
                        "description": "Authorization failed",
                        "schema": {
                            "type": "string"
                        }
                    }
                }
            }
        },
        "/api/v1/accounts/{account_hash}/hosts/{cname}": {
            "get": {
                "summary": "Get info on a host.",
                "produces": [
                    "application/json"
                ],
                "tags": [
                    "Hosts"
                ],
                "parameters": [
                    {
                        "name": "account_hash",
                        "in": "path",
                        "required": true,
                        "type": "string",
                        "description": "The account hash of the account."
                    },
                    {
                        "name": "cname",
                        "in": "path",
                        "required": true,
                        "type": "string",
                        "description": "The host cname."
                    }
                ],
                "responses": {
                    "200": {
                        "description": "Return info about the hash.",
                        "schema": {
                            "$ref": "#/definitions/Host"
                        }
                    },
                    "401": {
                        "description": "Authorization failed",
                        "schema": {
                            "type": "string"
                        }
                    }
                }
            },
            "put": {
                "summary": "Update an host.",
                "produces": [
                    "application/json"
                ],
                "tags": [
                    "Hosts"
                ],
                "parameters": [
                    {
                        "name": "account_hash",
                        "in": "path",
                        "required": true,
                        "type": "string",
                        "description": "The account hash of the account."
                    },
                    {
                        "name": "cname",
                        "in": "path",
                        "required": true,
                        "type": "string",
                        "description": "The host cname."
                    },
                    {
                        "name": "host",
                        "in": "body",
                        "required": true,
                        "schema": {
                            "$ref": "#/definitions/Host"
                        }
                    }
                ],
                "responses": {
                    "200": {
                        "description": "Return info about the hash.",
                        "schema": {
                            "$ref": "#/definitions/Host"
                        }
                    },
                    "401": {
                        "description": "Authorization failed.",
                        "schema": {
                            "type": "string"
                        }
                    }
                }
            },
            "delete": {
                "summary": "Delete a host.",
                "produces": [
                    "application/json"
                ],
                "tags": [
                    "Hosts"
                ],
                "parameters": [
                    {
                        "name": "account_hash",
                        "in": "path",
                        "required": true,
                        "type": "string",
                        "description": "The account hash of the account."
                    },
                    {
                        "name": "cname",
                        "in": "path",
                        "required": true,
                        "type": "string",
                        "description": "The cname to be deleted."
                    }
                ],
                "responses": {
                    "200": {
                        "description": "The host_hast has been successfully deleted.",
                        "schema": {
                            "type": "string"
                        }
                    },
                    "401": {
                        "description": "Authorization failed.",
                        "schema": {
                            "type": "string"
                        }
                    }
                }
            }
        },
        "/api/v1/accounts/{account_hash}/hosts/{cname}/origin": {
            "get": {
                "description": "Returns the origin details for a specific host",
                "summary": "Get the origin details for a specific host.",
                "tags": [
                    "Origin"
                ],
                "parameters": [
                    {
                        "name": "account_hash",
                        "in": "path",
                        "required": true,
                        "type": "string",
                        "description": "The account hash of the origin."
                    },
                    {
                        "name": "cname",
                        "in": "path",
                        "required": true,
                        "type": "string",
                        "description": "The host cname of the origin."
                    }
                ],
                "responses": {
                    "200": {
                        "description": "Successful response.",
                        "schema": {
                            "$ref": "#/definitions/Origin"
                        }
                    },
                    "401": {
                        "description": "Authorization failed.",
                        "schema": {
                            "type": "string"
                        }
                    }
                }
            },
            "put": {
                "description": "Updates an origin.\n",
                "summary": "Updates an origin.",
                "tags": [
                    "Origin"
                ],
                "parameters": [
                    {
                        "name": "account_hash",
                        "in": "path",
                        "required": true,
                        "type": "string",
                        "description": "The account hash of the origin."
                    },
                    {
                        "name": "cname",
                        "in": "path",
                        "required": true,
                        "type": "string",
                        "description": "The host cname of the origin."
                    },
                    {
                        "name": "origin",
                        "in": "body",
                        "required": true,
                        "schema": {
                            "$ref": "#/definitions/Origin"
                        }
                    }
                ],
                "responses": {
                    "200": {
                        "description": "Successful response.",
                        "schema": {
                            "type": "array",
                            "items": {
                                "$ref": "#/definitions/Origin"
                            }
                        }
                    },
                    "401": {
                        "description": "Authorization failed.",
                        "schema": {
                            "type": "string"
                        }
                    }
                }
            }
        },
        "/api/v1/accounts/{account_hash}/hosts/{cname}/hostnames": {
            "get": {
                "description": "List the hostnames for the specified host.",
                "summary": "List the hostnames for the specified host.",
                "produces": [
                    "application/json"
                ],
                "tags": [
                    "Hostnames"
                ],
                "parameters": [
                    {
                        "name": "account_hash",
                        "in": "path",
                        "required": true,
                        "type": "string",
                        "description": "The account hash of the account."
                    },
                    {
                        "name": "cname",
                        "in": "path",
                        "required": true,
                        "type": "string",
                        "description": "The host cname."
                    }
                ],
                "responses": {
                    "200": {
                        "description": "Return the list of the hostnames for the specified account.",
                        "schema": {
                            "type": "array",
                            "items": {
                                "type": "string"
                            }
                        }
                    },
                    "401": {
                        "description": "Authorization failed.",
                        "schema": {
                            "type": "string"
                        }
                    }
                }
            },
            "post": {
                "description": "Add an hostnames to an host.",
                "summary": "Add an hostname to an host.",
                "produces": [
                    "application/json"
                ],
                "tags": [
                    "Hostnames"
                ],
                "parameters": [
                    {
                        "name": "account_hash",
                        "in": "path",
                        "required": true,
                        "type": "string",
                        "description": "The account hash of the account."
                    },
                    {
                        "name": "cname",
                        "in": "path",
                        "required": true,
                        "type": "string",
                        "description": "The host cname."
                    },
                    {
                        "name": "hostname",
                        "in": "body",
                        "required": true,
                        "schema": {
                            "type": "string"
                        }
                    }
                ],
                "responses": {
                    "200": {
                        "description": "Return the hostname created",
                        "schema": {
                            "type": "string"
                        }
                    },
                    "401": {
                        "description": "Authorization failed.",
                        "schema": {
                            "type": "string"
                        }
                    }
                }
            }
        },
        "/api/v1/accounts/{account_hash}/hosts/{cname}/hostnames/{hostname_name}": {
            "delete": {
                "summary": "delete an hostname associated with the host",
                "produces": [
                    "application/json"
                ],
                "tags": [
                    "Hostnames"
                ],
                "parameters": [
                    {
                        "name": "account_hash",
                        "in": "path",
                        "required": true,
                        "type": "string",
                        "description": "The account hash of the account."
                    },
                    {
                        "name": "cname",
                        "in": "path",
                        "required": true,
                        "type": "string",
                        "description": "The host cname."
                    },
                    {
                        "name": "hostname_name",
                        "in": "path",
                        "required": true,
                        "type": "string",
                        "description": "The hostname."
                    }
                ],
                "responses": {
                    "200": {
                        "description": "Hostname successfully deleted",
                        "schema": {
                            "type": "string"
                        }
                    },
                    "401": {
                        "description": "Authorization failed.",
                        "schema": {
                            "type": "string"
                        }
                    }
                }
            }
        },
        "/api/v1/accounts/{account_hash}/hosts/{cname}/scopes": {
            "get": {
                "summary": "List the scopes for a given host.",
                "produces": [
                    "application/json"
                ],
                "tags": [
                    "Configuration"
                ],
                "parameters": [
                    {
                        "name": "account_hash",
                        "in": "path",
                        "required": true,
                        "type": "string",
                        "description": "The account hash of the account."
                    },
                    {
                        "name": "cname",
                        "in": "path",
                        "required": true,
                        "type": "string",
                        "description": "The cname of the host."
                    }
                ],
                "responses": {
                    "200": {
                        "description": "List the scopes at which a configuration exists for a given host.",
                        "schema": {
                            "type": "array",
                            "items": {
                                "$ref": "#/definitions/ConfigurationScope"
                            }
                        }
                    },
                    "401": {
                        "description": "Authorization failed.",
                        "schema": {
                            "type": "string"
                        }
                    }
                }
            },
            "post": {
                "summary": "Create a new configuration scope for a given host.",
                "produces": [
                    "application/json"
                ],
                "tags": [
                    "Configuration"
                ],
                "parameters": [
                    {
                        "name": "account_hash",
                        "in": "path",
                        "required": true,
                        "type": "string",
                        "description": "The account hash of the account."
                    },
                    {
                        "name": "cname",
                        "in": "path",
                        "required": true,
                        "type": "string",
                        "description": "The cname of the host."
                    },
                    {
                        "name": "scope",
                        "in": "body",
                        "required": true,
                        "schema": {
                            "$ref": "#/definitions/ConfigurationScope"
                        }
                    }
                ],
                "responses": {
                    "200": {
                        "description": "List the scopes at which a configuration exists for a given host.",
                        "schema": {
                            "$ref": "#/definitions/ConfigurationScope"
                        }
                    },
                    "401": {
                        "description": "Authorization failed.",
                        "schema": {
                            "type": "string"
                        }
                    }
                }
            }
        },
        "/api/v1/accounts/{account_hash}/hosts/{cname}/scopes/{scope_id}": {
            "get": {
                "summary": "Get detail on a configuration scope.",
                "produces": [
                    "application/json"
                ],
                "tags": [
                    "Configuration"
                ],
                "parameters": [
                    {
                        "name": "account_hash",
                        "in": "path",
                        "required": true,
                        "type": "string",
                        "description": "The account hash of the account."
                    },
                    {
                        "name": "cname",
                        "in": "path",
                        "required": true,
                        "type": "string",
                        "description": "The cname of the host."
                    },
                    {
                        "name": "scope_id",
                        "in": "path",
                        "required": true,
                        "type": "integer",
                        "description": "The scope id."
                    }
                ],
                "responses": {
                    "200": {
                        "description": "Return the host configuration for a certain scope.",
                        "schema": {
                            "$ref": "#/definitions/ConfigurationScope"
                        }
                    },
                    "401": {
                        "description": "Authorization failed",
                        "schema": {
                            "type": "string"
                        }
                    }
                }
            },
            "put": {
                "summary": "Update a configuration scope.",
                "produces": [
                    "application/json"
                ],
                "tags": [
                    "Configuration"
                ],
                "parameters": [
                    {
                        "name": "account_hash",
                        "in": "path",
                        "required": true,
                        "type": "string",
                        "description": "The account hash of the account."
                    },
                    {
                        "name": "cname",
                        "in": "path",
                        "required": true,
                        "type": "string",
                        "description": "The cname of the host."
                    },
                    {
                        "name": "scope_id",
                        "in": "path",
                        "required": true,
                        "type": "integer",
                        "description": "The scope id."
                    },
                    {
                        "name": "scope",
                        "in": "body",
                        "required": true,
                        "schema": {
                            "$ref": "#/definitions/ConfigurationScope"
                        }
                    }
                ],
                "responses": {
                    "200": {
                        "description": "Return the updated host configuration for the designated scope.",
                        "schema": {
                            "$ref": "#/definitions/ConfigurationScope"
                        }
                    },
                    "401": {
                        "description": "Authorization failed.",
                        "schema": {
                            "type": "string"
                        }
                    }
                }
            },
            "delete": {
                "summary": "Delete a configuration scope.",
                "produces": [
                    "application/json"
                ],
                "tags": [
                    "Configuration"
                ],
                "parameters": [
                    {
                        "name": "account_hash",
                        "in": "path",
                        "required": true,
                        "type": "string",
                        "description": "The account hash of the account."
                    },
                    {
                        "name": "cname",
                        "in": "path",
                        "required": true,
                        "type": "string",
                        "description": "The cname of the host."
                    },
                    {
                        "name": "scope_id",
                        "in": "path",
                        "required": true,
                        "type": "integer",
                        "description": "The scope id."
                    }
                ],
                "responses": {
                    "200": {
                        "description": "The configuration has been successfully deleted.",
                        "schema": {
                            "type": "string"
                        }
                    },
                    "401": {
                        "description": "Authorization failed.",
                        "schema": {
                            "type": "string"
                        }
                    }
                }
            }
        }
    },
    "definitions": {
        "Service": {
            "properties": {
                "id": {
                    "description": "The service id, used for setting services on an entity.",
                    "type": "integer"
                },
                "name": {
                    "description": "The friendly name of the service.",
                    "type": "string"
                },
                "description": {
                    "description": "Description of the service.",
                    "type": "string"
                },
                "multiCdnService": {
                    "description": "True if the service is available in a multi-CDN context.",
                    "type": "boolean"
                }
            },
            "required": [
                "id"
            ]
        },
        "Contact": {
            "properties": {
                "id": {
                    "description": "Unique id for this contact.",
                    "type": "integer"
                },
                "firstName": {
                    "description": "First name.",
                    "type": "string"
                },
                "lastName": {
                    "description": "Last name.",
                    "type": "string"
                },
                "email": {
                    "description": "Email.",
                    "type": "string"
                },
                "phone": {
                    "description": "Phone number.",
                    "type": "string"
                },
                "fax": {
                    "description": "Fax number.",
                    "type": "string"
                }
            }
        },
        "Account": {
            "properties": {
                "id": {
                    "description": "id for this account.",
                    "type": "integer"
                },
                "hashCode": {
                    "description": "Unique hash for this account.",
                    "type": "string"
                },
                "accountName": {
                    "description": "The name of the account.",
                    "type": "string"
                },
                "accountStatus": {
                    "description": "The account's active status.",
                    "type": "string",
                    "enum": [
                        "ACTIVATED",
                        "DELETED",
                        "SUSPENDED"
                    ]
                },
                "parentId": {
                    "description": "id of the parent account.",
                    "type": "integer"
                },
                "subAccounts": {
                    "description": "If part of a recursive subaccount fetch, this will contain the subaccounts of the account.",
                    "type": "array",
                    "items": {
                        "$ref": "#/definitions/Account"
                    }
                },
                "billingContact": {
                    "$ref": "#/definitions/Contact"
                },
                "maximumDirectSubAccounts": {
                    "description": "The maximun number of sub-accounts allowed on this account.",
                    "type": "integer"
                },
                "primaryContact": {
                    "$ref": "#/definitions/Contact"
                },
                "services": {
                    "description": "Services enabled on this account.",
                    "type": "array",
                    "items": {
                        "$ref": "#/definitions/Service"
                    }
                },
                "subAccountCreationEnabled": {
                    "description": "Determines whether the account is allowed to create sub-accounts.",
                    "type": "boolean"
                },
                "technicalContact": {
                    "$ref": "#/definitions/Contact"
                }
            }
        },
        "RequestToken": {
            "properties": {
                "grant_type": {
                    "description": "The OAuth 2.0 grant type being used.",
                    "type": "string",
                    "enum": [
                        "password",
                        "refresh_tokenu"
                    ]
                },
                "username": {
                    "description": "User's username. Ignored when grant_type = refresh_token.",
                    "type": "string"
                },
                "password": {
                    "description": "User's password. Ignored when grant_type = refresh_token.",
                    "type": "string"
                },
                "refresh_token": {
                    "description": "The refresh token to get a new access token with. This token will be invalidated upon success. Ignored when grant_type = password.",
                    "type": "string"
                }
            },
            "required": [
                "grant_type"
            ]
        },
        "AccessToken": {
            "properties": {
                "access_token": {
                    "description": "The token itself.",
                    "type": "string"
                },
                "token_type": {
                    "description": "The token type.",
                    "type": "string"
                },
                "expires_in": {
                    "description": "in seconds.",
                    "type": "integer"
                },
                "refresh_token": {
                    "description": "The token to use to ask a refresh.",
                    "type": "string"
                }
            }
        },
        "RoleList": {
            "description": "Permissions per categories.",
            "properties": {
                "account": {
                    "description": "Could be READ, EDIT, NONE.",
                    "type": "string",
                    "default": "NONE"
                },
                "configuration": {
                    "description": "Could be READ, EDIT, NONE.",
                    "type": "string",
                    "default": "NONE"
                },
                "report": {
                    "description": "Could be READ, EDIT, NONE.",
                    "type": "string",
                    "default": "NONE"
                },
                "content": {
                    "description": "Could be READ, EDIT, NONE.",
                    "type": "string",
                    "default": "NONE"
                }
            }
        },
        "RoleMatrix": {
            "description": "Converts between RoleList objects and role grids.",
            "properties": {
                "userAccount": {
                    "$ref": "#/definitions/RoleList"
                },
                "subAccounts": {
                    "$ref": "#/definitions/RoleList"
                }
            }
        },
        "User": {
            "properties": {
                "id": {
                    "description": "The user id.",
                    "type": "integer"
                },
                "accountHash": {
                    "description": "The hash code of the account that the user belontokengs to.",
                    "type": "string"
                },
                "username": {
                    "description": "The username of the user.",
                    "type": "string"
                },
                "password": {
                    "description": "The password of the user.",
                    "type": "string"
                },
                "firstName": {
                    "description": "The user's first name.",
                    "type": "string"
                },
                "lastName": {
                    "description": "The user's last name.",
                    "type": "string"
                },
                "lastLogin": {
                    "description": "The ISO date and time of the user's last login.",
                    "type": "string"
                },
                "email": {
                    "description": "The user's email address.",
                    "type": "string"
                },
                "phone": {
                    "description": "The user's phone number.",
                    "type": "string"
                },
                "fax": {
                    "description": "The user's fax number.",
                    "type": "string"
                },
                "authorizedSupportContact": {
                    "description": "Determines if the user is an authorized support contact.",
                    "type": "boolean"
                },
                "roles": {
                    "$ref": "#/definitions/RoleMatrix"
                }
            }
        },
        "Origin": {
            "properties": {
                "hostname": {
                    "description": "The origin's hostname.",
                    "type": "string"
                },
                "port": {
                    "description": "The origin's port.",
                    "type": "integer",
                    "default": 80
                },
                "protocol": {
                    "description": "The origin's protocol. Could be http or https.",
                    "type": "string",
                    "default": "http"
                },
                "path": {
                    "description": "The path to prepend to requests starting with a /",
                    "type": "string"
                }
            },
            "required": [
                "hostname",
                "port",
                "protocol",
                "path"
            ]
        },
        "Series": {
            "properties": {
                "data": {
                    "description": "An array with data points resulting from the query.",
                    "type": "array",
                    "items": {
                        "type": "integer"
                    }
                },
                "key": {
                    "description": "The identifier.",
                    "type": "string"
                },
                "metrics": {
                    "description": "An array that describes the data values returned.",
                    "type": "array",
                    "items": {
                        "type": "string"
                    }
                },
                "type": {
                    "description": "the type of the key identifier.",
                    "type": "string"
                }
            }
        },
        "SeriesCollection": {
            "properties": {
                "series": {
                    "description": "The series result set.",
                    "type": "array",
                    "items": {
                        "$ref": "#/definitions/Series"
                    }
                }
            }
        },
        "CacheControlMode": {
            "properties": {
                "int": {
                    "description": "ttl default value for internal cache",
                    "type": "integer"
                },
                "ext": {
                    "description": "ttl default value for the user browser cache",
                    "type": "integer"
                },
                "force": {
                    "description": "force the cache control values even if the origin send an Cacche-control header",
                    "type": "boolean"
                }
            },
            "required": [
                "int",
                "ext",
                "force"
            ]
        },
        "ConfigurationScope": {
            "properties": {
                "id": {
                    "description": "(read only) The unique identifier for this ConfigurationScope.",
                    "type": "integer"
                },
                "path": {
                    "description": "The path at which this configuration applies on the host.",
                    "type": "string"
                },
                "queryStringModeOn": {
                    "description": "yes if query string are used to generate the cache key",
                    "type": "boolean"
                },
                "cacheControlMode": {
                    "$ref": "#/definitions/CacheControlMode"
                }
            },
            "required": [
                "path",
                "queryStringModeOn",
                "cacheControlMode"
            ]
        },
        "Host": {
            "properties": {
                "cname": {
                    "description": "(read only) The unique cname identifier of the host, used in host API urls",
                    "type": "string"
                },
                "name": {
                    "description": "The name of the host.",
                    "type": "string"
                },
                "scopes": {
                    "description": "Array of scopes at which you may configure policies.",
                    "type": "array",
                    "items": {
                        "$ref": "#/definitions/ConfigurationScope"
                    }
                },
                "services": {
                    "description": "Array of services.",
                    "type": "array",
                    "items": {
                        "$ref": "#/definitions/Service"
                    }
                },
                "origin": {
                    "$ref": "#/definitions/Origin"
                },
                "hostnames": {
                    "description": "List of the hostnames associated with the host",
                    "type": "array",
                    "items": {
                        "type": "string"
                    }
                }
            },
            "required": [
                "name",
                "origin"
            ]
        },
        "ErrorMessage": {
            "properties": {
                "status": {
                    "description": "http status.",
                    "type": "string"
                },
                "message": {
                    "type": "string"
                }
            }
        }
    }
}